module gitlab.com/eyJhb/gate-minecraft-on-demand

go 1.18

require (
	github.com/digitalocean/godo v1.83.0
	github.com/go-logr/logr v1.2.3
	github.com/go-logr/zerologr v1.2.2
	github.com/rs/zerolog v1.28.0
	go.minekube.com/brigodier v0.0.1
	go.minekube.com/common v0.0.2
	go.minekube.com/gate v0.20.1
	gopkg.in/yaml.v2 v2.4.0
)

require (
	github.com/agext/levenshtein v1.2.3 // indirect
	github.com/df-mc/atomic v1.10.0 // indirect
	github.com/emirpasic/gods v1.18.1 // indirect
	github.com/francoispqt/gojay v1.2.13 // indirect
	github.com/fsnotify/fsnotify v1.5.4 // indirect
	github.com/gammazero/deque v0.2.0 // indirect
	github.com/go-gl/mathgl v1.0.0 // indirect
	github.com/golang/groupcache v0.0.0-20210331224755-41bb18bfe9da // indirect
	github.com/golang/protobuf v1.5.2 // indirect
	github.com/google/go-querystring v1.1.0 // indirect
	github.com/google/uuid v1.3.0 // indirect
	github.com/hashicorp/hcl v1.0.0 // indirect
	github.com/klauspost/compress v1.15.9 // indirect
	github.com/lucasb-eyer/go-colorful v1.2.0 // indirect
	github.com/magiconair/properties v1.8.6 // indirect
	github.com/mattn/go-colorable v0.1.13 // indirect
	github.com/mattn/go-isatty v0.0.16 // indirect
	github.com/mitchellh/mapstructure v1.5.0 // indirect
	github.com/nfnt/resize v0.0.0-20180221191011-83c6a9932646 // indirect
	github.com/pelletier/go-toml v1.9.5 // indirect
	github.com/pelletier/go-toml/v2 v2.0.5 // indirect
	github.com/rs/xid v1.4.0 // indirect
	github.com/sandertv/go-raknet v1.11.1 // indirect
	github.com/sandertv/gophertunnel v1.24.6 // indirect
	github.com/spf13/afero v1.9.2 // indirect
	github.com/spf13/cast v1.5.0 // indirect
	github.com/spf13/jwalterweatherman v1.1.0 // indirect
	github.com/spf13/pflag v1.0.5 // indirect
	github.com/spf13/viper v1.12.0 // indirect
	github.com/subosito/gotenv v1.4.1 // indirect
	go.minekube.com/connect v0.4.3 // indirect
	go.uber.org/atomic v1.10.0 // indirect
	go.uber.org/multierr v1.8.0 // indirect
	golang.org/x/image v0.0.0-20220902085622-e7cb96979f69 // indirect
	golang.org/x/net v0.0.0-20220826154423-83b083e8dc8b // indirect
	golang.org/x/oauth2 v0.0.0-20220822191816-0ebed06d0094 // indirect
	golang.org/x/sys v0.0.0-20220829200755-d48e67d00261 // indirect
	golang.org/x/text v0.3.7 // indirect
	golang.org/x/time v0.0.0-20220722155302-e5dcc9cfc0b9 // indirect
	google.golang.org/appengine v1.6.7 // indirect
	google.golang.org/genproto v0.0.0-20220902135211-223410557253 // indirect
	google.golang.org/grpc v1.49.0 // indirect
	google.golang.org/protobuf v1.28.1 // indirect
	gopkg.in/ini.v1 v1.67.0 // indirect
	gopkg.in/yaml.v3 v3.0.1 // indirect
	nhooyr.io/websocket v1.8.7 // indirect
)

replace git.apache.org/thrift.git => github.com/apache/thrift v0.16.0
